<svg xmlns="http://www.w3.org/2000/svg" width="24" height="24" viewBox="0 0 24 24">
  <g fill="none" fill-rule="evenodd" stroke="#333" stroke-linecap="round" stroke-linejoin="round" stroke-width="1.5" transform="translate(1.333)">
    <path d="M21.1216667,21.75 C21.1216667,22.5784271 20.4500938,23.25 19.6216667,23.25 L1.62166667,23.25 C0.793239542,23.25 0.121666667,22.5784271 0.121666667,21.75 L0.121666667,2.25 C0.121666667,1.42157288 0.793239542,0.75 1.62166667,0.75 L16.6216667,0.75 C17.0121721,0.750560246 17.3870649,0.903387376 17.6666667,1.176 L20.6666667,4.059 C20.9560298,4.34104988 21.1193577,4.72791702 21.1196667,5.132 L21.1216667,21.75 Z"/>
    <polyline points="4.622 7.5 4.622 18.75 16.622 18.75"/>
    <path d="M4.62166667,15.75 L7.98366667,12.612 C8.73534721,11.9289722 9.88298613,11.9289722 10.6346667,12.612 L11.3606667,13.29 C11.7814124,13.6752348 12.3492449,13.8578176 12.9156667,13.79 C13.4771626,13.7313975 13.9830174,13.4247299 14.2946667,12.954 L15.8666667,10.5"/>
  </g>
</svg>
