<svg xmlns="http://www.w3.org/2000/svg" width="24" height="24" viewBox="0 0 24 24">
  <g fill="none" fill-rule="evenodd" stroke="#333" stroke-linecap="round" stroke-linejoin="round" stroke-width="1.5">
    <path d="M17.25 20.25C17.4571068 20.25 17.625 20.4178932 17.625 20.625 17.625 20.8321068 17.4571068 21 17.25 21 17.0428932 21 16.875 20.8321068 16.875 20.625 16.875 20.4178932 17.0428932 20.25 17.25 20.25M17.25 18L17.25 15"/>
    <path d="M23.063 20.682C23.3382883 21.2320191 23.309034 21.8853843 22.9856917 22.4085998 22.6623494 22.9318153 22.0910648 23.2502108 21.476 23.25L13.024 23.25C12.4089352 23.2502108 11.8376506 22.9318153 11.5143083 22.4085998 11.190966 21.8853843 11.1617117 21.2320191 11.437 20.682L15.663 12.231C15.9633876 11.6296825 16.5778278 11.2497843 17.25 11.2497843 17.9221722 11.2497843 18.5366124 11.6296825 18.837 12.231L23.063 20.682zM7.5 20.25L2.25 20.25C1.42157288 20.25.75 19.5784271.75 18.75L.75 2.25C.75 1.42157288 1.42157288.75 2.25.75L12.879.75C13.2765472.750084881 13.6578016.907981752 13.939 1.189L16.811 4.061C17.0920182 4.34219839 17.2499151 4.72345279 17.25 5.121L17.25 8.25"/>
  </g>
</svg>
