<svg xmlns="http://www.w3.org/2000/svg" width="24" height="24" viewBox="0 0 24 24">
  <g fill="none" fill-rule="evenodd" stroke="#333" stroke-linecap="round" stroke-linejoin="round" stroke-width="1.5">
    <circle cx="17.25" cy="17.25" r="6"/>
    <path d="M19.924 15.506L17.019 19.379C16.8882581 19.5526743 16.6887571 19.6612741 16.4719275 19.676803 16.255098 19.6923319 16.0421571 19.6132703 15.888 19.46L14.388 17.96M3.75 6.75L14.25 6.75M3.75 11.25L9.75 11.25M3.75 15.75L7.5 15.75M7.5 20.25L2.25 20.25C1.42157288 20.25.75 19.5784271.75 18.75L.75 2.25C.75 1.42157288 1.42157288.75 2.25.75L12.879.75C13.2765472.750084881 13.6578016.907981752 13.939 1.189L16.811 4.061C17.0920182 4.34219839 17.2499151 4.72345279 17.25 5.121L17.25 7.5"/>
  </g>
</svg>
