<svg xmlns="http://www.w3.org/2000/svg" width="24" height="24" viewBox="0 0 24 24">
  <path fill="none" stroke="#000" stroke-linecap="round" stroke-linejoin="round" stroke-width="1.5" d="M.25 12.003L13.75 12.003M.25 6.003L16.75 6.003M.25.003L19.75.003" transform="translate(2 6)"/>
</svg>
