<svg xmlns="http://www.w3.org/2000/svg" width="24" height="24" viewBox="0 0 24 24">
  <g fill="none" fill-rule="evenodd" stroke="#333" stroke-linecap="round" stroke-linejoin="round" stroke-width="1.5">
    <path d="M21.75,21.75 C21.75,22.5784271 21.0784271,23.25 20.25,23.25 L3.75,23.25 C2.92157288,23.25 2.25,22.5784271 2.25,21.75 L2.25,2.25 C2.25,1.42157288 2.92157288,0.75 3.75,0.75 L14.379,0.75 C14.7765472,0.750084881 15.1578016,0.907981752 15.439,1.189 L21.311,7.061 C21.5920182,7.34219839 21.7499151,7.72345279 21.75,8.121 L21.75,21.75 Z"/>
    <path d="M21.75 8.25L15.75 8.25C14.9215729 8.25 14.25 7.57842712 14.25 6.75L14.25.75M6.2 11.594C6.63952429 12.1712828 7.33301491 12.4978728 8.058 12.469 9.197 12.469 10.121 11.776 10.121 10.922 10.121 10.068 9.2 9.376 8.062 9.376 6.924 9.376 6 8.683 6 7.828 6 6.973 6.924 6.281 8.062 6.281 8.78708945 6.25161229 9.48080616 6.5783088 9.92 7.156M8.062 12.469L8.062 13.5M8.062 5.25L8.062 6.281M12 15L18 15M6.75 19.5L18 19.5"/>
  </g>
</svg>
