<svg xmlns="http://www.w3.org/2000/svg" width="24" height="24" viewBox="0 0 24 24">
  <g fill="none" fill-rule="evenodd" stroke="#26B450" stroke-linecap="round" stroke-linejoin="round" stroke-width="1.5">
    <path d="M15.75,9.749 L11.769,15.057 C11.638496,15.2307777 11.4390298,15.339403 11.2222478,15.3547504 C11.0054658,15.3700978 10.7926853,15.2906581 10.639,15.137 L8.25,12.749"/>
    <path d="M10.73,1.357 C11.039406,0.97242394 11.5064103,0.748763182 12,0.748763182 C12.4935897,0.748763182 12.960594,0.97242394 13.27,1.357 L14.782,3.238 C15.1300067,3.67168334 15.6751872,3.8978993 16.228,3.838 L18.628,3.577 C19.1201268,3.52233096 19.6104226,3.6943239 19.9605493,4.04445067 C20.3106761,4.39457744 20.482669,4.88487318 20.428,5.377 L20.167,7.777 C20.1071007,8.32981281 20.3333167,8.87499326 20.767,9.223 L22.648,10.735 C23.0325761,11.044406 23.2562368,11.5114103 23.2562368,12.005 C23.2562368,12.4985897 23.0325761,12.965594 22.648,13.275 L20.761,14.78 C20.3274604,15.128554 20.1013191,15.6739316 20.161,16.227 L20.422,18.627 C20.4770618,19.1192186 20.3051967,19.6097526 19.9549747,19.9599747 C19.6047526,20.3101967 19.1142186,20.4820618 18.622,20.427 L16.222,20.166 C15.6691597,20.1059095 15.1238907,20.3321621 14.776,20.766 L13.27,22.64 C12.9608043,23.0249159 12.4937228,23.2488329 12,23.2488329 C11.5062772,23.2488329 11.0391957,23.0249159 10.73,22.64 L9.219,20.76 C8.87056152,20.3263063 8.32509583,20.1001284 7.772,20.16 L5.372,20.421 C4.87968957,20.4764556 4.38891655,20.3047187 4.03859893,19.9544011 C3.6882813,19.6040834 3.5165444,19.1133104 3.572,18.621 L3.833,16.221 C3.8928716,15.6679042 3.6666937,15.1224385 3.233,14.774 L1.353,13.263 C0.968084094,12.9538043 0.744167143,12.4867228 0.744167143,11.993 C0.744167143,11.4992772 0.968084094,11.0321957 1.353,10.723 L3.233,9.211 C3.66683785,8.86310927 3.89309055,8.31784027 3.833,7.765 L3.572,5.365 C3.51693821,4.87278141 3.68880331,4.38224738 4.03902534,4.03202534 C4.38924738,3.68180331 4.87978141,3.50993821 5.372,3.565 L7.772,3.826 C8.32506844,3.88568095 8.87044596,3.65953961 9.219,3.226 L10.73,1.357 Z"/>
  </g>
</svg>
